sequence_id,Vote,Spotter,Uploader,Correct,True.species
26805135,Small rodent,194,195,0,Wood mouse
26805135,Small rodent,194,195,0,Rabbit
26851809,Robin,1001,195,0,Blackbird
26851809,Robin,1001,195,0,Mistle thrush
27147757,Bank vole,2474,2254,0,Grey squirrel
27147757,Great tit,2474,2254,0,Magpie
27147757,Otter,2474,2254,0,Grey squirrel
27147757,Reindeer,2474,2254,0,Grey squirrel
27147757,Rabbit,2474,2254,0,Grey squirrel
26827222,Blackbird,250,250,0,Magpie
26827222,Blackbird,250,250,0,Woodpigeon
27148060,Blackbird,2470,2036,0,Jackdaw
27148060,Carrion crow,2470,2036,0,Jackdaw
27148060,Dunnock,2470,2036,0,Magpie
27148060,Human,2470,2036,0,Herring gull
27148060,Woodpigeon,2470,2036,0,Herring gull
27148112,Jackdaw,1610,2036,0,Herring gull
27148112,Jackdaw,1610,2036,0,Rook
27148112,Jackdaw,2470,2036,0,Herring gull
27148112,Jackdaw,2470,2036,0,Rook
27187792,American mink,2474,816,0,Rabbit
27187792,Blackbird,2474,816,0,Hedgehog (Western)
27187792,Brown (European) hare,2474,816,0,Rabbit
27187792,Carrion crow,2474,816,0,Hedgehog (Western)
27187792,Dunnock,2474,816,0,Hedgehog (Western)
27187792,Great tit,2474,816,0,Hedgehog (Western)
27187792,Human,2474,816,0,Rabbit
27187792,Jay,2474,816,0,Hedgehog (Western)
27187792,Pheasant,2474,816,0,Rabbit
27187792,Stoat,2474,816,0,Rabbit
27187792,Vole (unknown species),2474,816,0,Rabbit
27247860,American mink,2470,1038,0,Horse
27247860,American mink,2470,1038,0,Livestock
27247860,Badger,2470,1038,0,Horse
27247860,Badger,2470,1038,0,Livestock
27247860,Blackbird,2470,1038,0,Horse
27247860,Blackbird,2470,1038,0,Livestock
27247860,Domestic cat,2470,1038,0,Horse
27247860,Domestic cat,2470,1038,0,Livestock
27247860,Great tit,2470,1038,0,Horse
27247860,Great tit,2470,1038,0,Livestock
27247860,Stoat,2470,1038,0,Horse
27247860,Stoat,2470,1038,0,Livestock
27247860,Woodpigeon,2470,1038,0,Horse
27247860,Woodpigeon,2470,1038,0,Livestock
27247860,Magpie,2470,1038,0,Horse
27247860,Magpie,2470,1038,0,Livestock
27247860,Pheasant,2470,1038,0,Horse
27247860,Pheasant,2470,1038,0,Livestock
27247860,Red fox,2470,1038,0,Horse
27247860,Red fox,2470,1038,0,Livestock
27247860,Robin,2470,1038,0,Horse
27247860,Robin,2470,1038,0,Livestock
27247860,Song thrush,2470,1038,0,Horse
27247860,Song thrush,2470,1038,0,Livestock
27247860,Pine marten,2470,1038,0,Horse
27247860,Pine marten,2470,1038,0,Livestock
27272339,Unidentified bird,2614,816,0,Carrion crow
27272339,Unidentified bird,2614,816,0,Domestic cat
27272340,Unidentified bird,2614,816,0,Carrion crow
27272340,Unidentified bird,2614,816,0,Domestic cat
27278530,Carrion crow,2589,181,0,Oystercatcher
27278530,Carrion crow,2589,181,0,Rabbit
27278530,Unidentified bird,2614,181,0,Oystercatcher
27278530,Unidentified bird,2614,181,0,Rabbit
